{
  "project_info": {
    "project_number": "237007457465",
    "firebase_url": "https://androiddev01-58608.firebaseio.com",
    "project_id": "androiddev01-58608",
    "storage_bucket": "androiddev01-58608.appspot.com"
  },
  "client": [
    {
      "client_info": {
        "mobilesdk_app_id": "1:237007457465:android:dd4a0f172bc99072",
        "android_client_info": {
          "package_name": "com.sacti.baharudinafif.androiddev01"
        }
      },
      "oauth_client": [
        {
          "client_id": "237007457465-m2gca1ttdmbauvs5ui057e6bus7a07pm.apps.googleusercontent.com",
          "client_type": 3
        }
      ],
      "api_key": [
        {
          "current_key": "AIzaSyDRtXFyit6yocxZkrTBjDV_GszJDvezTJw"
        }
      ],
      "services": {
        "analytics_service": {
          "status": 1
        },
        "appinvite_service": {
          "status": 2,
          "other_platform_oauth_client": [
            {
              "client_id": "237007457465-m2gca1ttdmbauvs5ui057e6bus7a07pm.apps.googleusercontent.com",
              "client_type": 3
            }
          ]
        },
        "ads_service": {
          "status": 2
        }
      }
    }
  ],
  "configuration_version": "1"
}